<mxfile host="app.diagrams.net" modified="2024-06-14T04:51:50.699Z" agent="Mozilla/5.0 (Windows NT 10.0; Win64; x64) AppleWebKit/537.36 (KHTML, like Gecko) Chrome/125.0.0.0 Safari/537.36 Edg/125.0.0.0" version="24.5.4" etag="nFxyWUxo3pFvgTDFlEEx" type="gitlab">
  <diagram name="Seite-1" id="rq_iZosxz1e3H1oYEo-q">
    <mxGraphModel>
      <root>
        <mxCell id="0" />
        <mxCell id="1" parent="0" />
      </root>
    </mxGraphModel>
  </diagram>
</mxfile>
